PC_FPGA/PC/simulation/qsim/PC.msim.vcd
$comment
	File created using the following command:
		vcd file PC.msim.vcd -direction
$end
$date
	Mon Jun 28 17:50:01 2021
$end
$version
	ModelSim Version 10.5b
$end
$timescale
	1ps
$end

$scope module pc_vhd_vec_tst $end
$var wire 1 ! CLK $end
$var wire 1 " CLR $end
$var wire 1 # IPC $end
$var wire 1 $ PCOUT [3] $end
$var wire 1 % PCOUT [2] $end
$var wire 1 & PCOUT [1] $end
$var wire 1 ' PCOUT [0] $end

$scope module i1 $end
$var wire 1 ( gnd $end
$var wire 1 ) vcc $end
$var wire 1 * unknown $end
$var wire 1 + devoe $end
$var wire 1 , devclrn $end
$var wire 1 - devpor $end
$var wire 1 . ww_devoe $end
$var wire 1 / ww_devclrn $end
$var wire 1 0 ww_devpor $end
$var wire 1 1 ww_IPC $end
$var wire 1 2 ww_CLK $end
$var wire 1 3 ww_CLR $end
$var wire 1 4 ww_PCOUT [3] $end
$var wire 1 5 ww_PCOUT [2] $end
$var wire 1 6 ww_PCOUT [1] $end
$var wire 1 7 ww_PCOUT [0] $end
$var wire 1 8 \CLR~inputclkctrl_INCLK_bus\ [3] $end
$var wire 1 9 \CLR~inputclkctrl_INCLK_bus\ [2] $end
$var wire 1 : \CLR~inputclkctrl_INCLK_bus\ [1] $end
$var wire 1 ; \CLR~inputclkctrl_INCLK_bus\ [0] $end
$var wire 1 < \CLK~inputclkctrl_INCLK_bus\ [3] $end
$var wire 1 = \CLK~inputclkctrl_INCLK_bus\ [2] $end
$var wire 1 > \CLK~inputclkctrl_INCLK_bus\ [1] $end
$var wire 1 ? \CLK~inputclkctrl_INCLK_bus\ [0] $end
$var wire 1 @ \PCOUT[0]~output_o\ $end
$var wire 1 A \PCOUT[1]~output_o\ $end
$var wire 1 B \PCOUT[2]~output_o\ $end
$var wire 1 C \PCOUT[3]~output_o\ $end
$var wire 1 D \CLK~input_o\ $end
$var wire 1 E \CLK~inputclkctrl_outclk\ $end
$var wire 1 F \IPC~input_o\ $end
$var wire 1 G \QOUT[0]~0_combout\ $end
$var wire 1 H \CLR~input_o\ $end
$var wire 1 I \CLR~inputclkctrl_outclk\ $end
$var wire 1 J \QOUT[1]~1_combout\ $end
$var wire 1 K \QOUT[2]~2_combout\ $end
$var wire 1 L \QOUT[3]~3_combout\ $end
$var wire 1 M \QOUT[3]~4_combout\ $end
$var wire 1 N QOUT [3] $end
$var wire 1 O QOUT [2] $end
$var wire 1 P QOUT [1] $end
$var wire 1 Q QOUT [0] $end
$upscope $end
$upscope $end
$enddefinitions $end
#0
$dumpvars
0!
1"
1#
0(
1)
x*
1+
1,
1-
1.
1/
10
11
02
13
0@
0A
0B
0C
0D
0E
1F
1G
1H
1I
0J
0K
0L
0M
04
05
06
07
0N
0O
0P
0Q
1<
1=
1>
0?
18
19
1:
1;
0$
0%
0&
0'
$end
#10000
1!
12
1D
1?
1E
1Q
0G
1J
1@
17
1'
#20000
0!
02
0D
0?
0E
#30000
1!
12
1D
1?
1E
0Q
1P
1G
1A
0@
16
07
0'
1&
#40000
0!
02
0D
0?
0E
#50000
1!
12
1D
1?
1E
1Q
0G
0J
1K
1@
17
1'
#60000
0!
02
0D
0?
0E
#70000
1!
12
1D
1?
1E
0Q
0P
1O
1G
1B
0A
0@
15
06
07
0'
0&
1%
#80000
0!
02
0D
0?
0E
#90000
1!
12
1D
1?
1E
1Q
0G
1J
1@
17
1'
#100000
0!
02
0D
0?
0E
#110000
1!
12
1D
1?
1E
0Q
1P
1G
1A
0@
16
07
0'
1&
#120000
0!
02
0D
0?
0E
#130000
1!
12
1D
1?
1E
1Q
0G
0J
0K
1L
1M
1@
17
1'
#140000
0!
02
0D
0?
0E
#150000
1!
12
1D
1?
1E
0Q
0P
0O
1N
0M
1G
0L
1M
1C
0B
0A
0@
14
05
06
07
0'
0&
0%
1$
#160000
0!
02
0D
0?
0E
#170000
1!
12
1D
1?
1E
1Q
0G
1J
1@
17
1'
#180000
0!
02
0D
0?
0E
#190000
1!
12
1D
1?
1E
0Q
1P
1G
1A
0@
16
07
0'
1&
#200000
0!
02
0D
0?
0E
#210000
1!
12
1D
1?
1E
1Q
0G
0J
1K
1@
17
1'
#220000
0!
02
0D
0?
0E
#230000
1!
12
1D
1?
1E
0Q
0P
1O
1G
1B
0A
0@
15
06
07
0'
0&
1%
#240000
0!
02
0D
0?
0E
#250000
1!
12
1D
1?
1E
1Q
0G
1J
1@
17
1'
#260000
0!
02
0D
0?
0E
#270000
1!
12
1D
1?
1E
0Q
1P
1G
1A
0@
16
07
0'
1&
#280000
0!
02
0D
0?
0E
#290000
1!
12
1D
1?
1E
1Q
0G
0J
0K
1L
0M
1@
17
1'
#300000
0!
02
0D
0?
0E
#310000
1!
12
1D
1?
1E
0Q
0P
0O
0N
1M
1G
0L
0M
0C
0B
0A
0@
04
05
06
07
0'
0&
0%
0$
#320000
0!
02
0D
0?
0E
#330000
1!
12
1D
1?
1E
1Q
0G
1J
1@
17
1'
#340000
0!
02
0D
0?
0E
#350000
1!
12
1D
1?
1E
0Q
1P
1G
1A
0@
16
07
0'
1&
#360000
0!
02
0D
0?
0E
#370000
1!
12
1D
1?
1E
1Q
0G
0J
1K
1@
17
1'
#380000
0!
02
0D
0?
0E
#390000
1!
12
1D
1?
1E
0Q
0P
1O
1G
1B
0A
0@
15
06
07
0'
0&
1%
#400000
0!
02
0D
0?
0E
#410000
1!
12
1D
1?
1E
1Q
0G
1J
1@
17
1'
#420000
0!
02
0D
0?
0E
#430000
1!
12
1D
1?
1E
0Q
1P
1G
1A
0@
16
07
0'
1&
#440000
0!
02
0D
0?
0E
#450000
1!
12
1D
1?
1E
1Q
0G
0J
0K
1L
1M
1@
17
1'
#460000
0!
02
0D
0?
0E
#470000
1!
12
1D
1?
1E
0Q
0P
0O
1N
0M
1G
0L
1M
1C
0B
0A
0@
14
05
06
07
0'
0&
0%
1$
#480000
0!
02
0D
0?
0E
#490000
1!
12
1D
1?
1E
1Q
0G
1J
1@
17
1'
#500000
0!
02
0D
0?
0E
#510000
1!
12
1D
1?
1E
0Q
1P
1G
1A
0@
16
07
0'
1&
#520000
0!
02
0D
0?
0E
#530000
1!
12
1D
1?
1E
1Q
0G
0J
1K
1@
17
1'
#540000
0!
02
0D
0?
0E
#550000
1!
12
1D
1?
1E
0Q
0P
1O
1G
1B
0A
0@
15
06
07
0'
0&
1%
#560000
0!
02
0D
0?
0E
#570000
1!
12
1D
1?
1E
1Q
0G
1J
1@
17
1'
#580000
0!
02
0D
0?
0E
#590000
1!
12
1D
1?
1E
0Q
1P
1G
1A
0@
16
07
0'
1&
#600000
0!
02
0D
0?
0E
#610000
1!
12
1D
1?
1E
1Q
0G
0J
0K
1L
0M
1@
17
1'
#620000
0!
02
0D
0?
0E
#630000
1!
12
1D
1?
1E
0Q
0P
0O
0N
1M
1G
0L
0M
0C
0B
0A
0@
04
05
06
07
0'
0&
0%
0$
#640000
0!
02
0D
0?
0E
#650000
1!
12
1D
1?
1E
1Q
0G
1J
1@
17
1'
#660000
0!
02
0D
0?
0E
#670000
1!
12
1D
1?
1E
0Q
1P
1G
1A
0@
16
07
0'
1&
#680000
0!
02
0D
0?
0E
#690000
1!
12
1D
1?
1E
1Q
0G
0J
1K
1@
17
1'
#700000
0!
02
0D
0?
0E
#710000
1!
12
1D
1?
1E
0Q
0P
1O
1G
1B
0A
0@
15
06
07
0'
0&
1%
#720000
0!
02
0D
0?
0E
#730000
1!
12
1D
1?
1E
1Q
0G
1J
1@
17
1'
#740000
0!
02
0D
0?
0E
#750000
1!
12
1D
1?
1E
0Q
1P
1G
1A
0@
16
07
0'
1&
#760000
0!
02
0D
0?
0E
#770000
1!
12
1D
1?
1E
1Q
0G
0J
0K
1L
1M
1@
17
1'
#780000
0!
02
0D
0?
0E
#790000
1!
12
1D
1?
1E
0Q
0P
0O
1N
0M
1G
0L
1M
1C
0B
0A
0@
14
05
06
07
0'
0&
0%
1$
#800000
0!
02
0D
0?
0E
#810000
1!
12
1D
1?
1E
1Q
0G
1J
1@
17
1'
#820000
0!
02
0D
0?
0E
#830000
1!
12
1D
1?
1E
0Q
1P
1G
1A
0@
16
07
0'
1&
#840000
0!
02
0D
0?
0E
#850000
1!
12
1D
1?
1E
1Q
0G
0J
1K
1@
17
1'
#860000
0!
02
0D
0?
0E
#870000
1!
12
1D
1?
1E
0Q
0P
1O
1G
1B
0A
0@
15
06
07
0'
0&
1%
#880000
0!
02
0D
0?
0E
#890000
1!
12
1D
1?
1E
1Q
0G
1J
1@
17
1'
#900000
0!
02
0D
0?
0E
#910000
1!
12
1D
1?
1E
0Q
1P
1G
1A
0@
16
07
0'
1&
#920000
0!
02
0D
0?
0E
#930000
1!
12
1D
1?
1E
1Q
0G
0J
0K
1L
0M
1@
17
1'
#940000
0!
02
0D
0?
0E
#950000
1!
12
1D
1?
1E
0Q
0P
0O
0N
1M
1G
0L
0M
0C
0B
0A
0@
04
05
06
07
0'
0&
0%
0$
#960000
0!
02
0D
0?
0E
#970000
1!
12
1D
1?
1E
1Q
0G
1J
1@
17
1'
#980000
0!
02
0D
0?
0E
#990000
1!
12
1D
1?
1E
0Q
1P
1G
1A
0@
16
07
0'
1&
