COUNTER_FPGA/pulseGen/simulation/qsim/pulseGen.msim.vcd
$comment
	File created using the following command:
		vcd file pulseGen.msim.vcd -direction
$end
$date
	Mon Jun 28 20:50:03 2021
$end
$version
	ModelSim Version 10.5b
$end
$timescale
	1ps
$end

$scope module pulsegen_vhd_vec_tst $end
$var wire 1 ! CLK $end
$var wire 1 " CLR $end
$var wire 1 # SEL0 $end
$var wire 1 $ T0 $end
$var wire 1 % T1 $end
$var wire 1 & T2 $end
$var wire 1 ' T3 $end
$var wire 1 ( T4 $end
$var wire 1 ) T5 $end
$var wire 1 * T6 $end
$var wire 1 + T7 $end

$scope module i1 $end
$var wire 1 , gnd $end
$var wire 1 - vcc $end
$var wire 1 . unknown $end
$var wire 1 / devoe $end
$var wire 1 0 devclrn $end
$var wire 1 1 devpor $end
$var wire 1 2 ww_devoe $end
$var wire 1 3 ww_devclrn $end
$var wire 1 4 ww_devpor $end
$var wire 1 5 ww_CLR $end
$var wire 1 6 ww_CLK $end
$var wire 1 7 ww_SEL0 $end
$var wire 1 8 ww_T0 $end
$var wire 1 9 ww_T1 $end
$var wire 1 : ww_T2 $end
$var wire 1 ; ww_T3 $end
$var wire 1 < ww_T4 $end
$var wire 1 = ww_T5 $end
$var wire 1 > ww_T6 $end
$var wire 1 ? ww_T7 $end
$var wire 1 @ \CLR~inputclkctrl_INCLK_bus\ [3] $end
$var wire 1 A \CLR~inputclkctrl_INCLK_bus\ [2] $end
$var wire 1 B \CLR~inputclkctrl_INCLK_bus\ [1] $end
$var wire 1 C \CLR~inputclkctrl_INCLK_bus\ [0] $end
$var wire 1 D \CLK~inputclkctrl_INCLK_bus\ [3] $end
$var wire 1 E \CLK~inputclkctrl_INCLK_bus\ [2] $end
$var wire 1 F \CLK~inputclkctrl_INCLK_bus\ [1] $end
$var wire 1 G \CLK~inputclkctrl_INCLK_bus\ [0] $end
$var wire 1 H \SEL0~output_o\ $end
$var wire 1 I \T0~output_o\ $end
$var wire 1 J \T1~output_o\ $end
$var wire 1 K \T2~output_o\ $end
$var wire 1 L \T3~output_o\ $end
$var wire 1 M \T4~output_o\ $end
$var wire 1 N \T5~output_o\ $end
$var wire 1 O \T6~output_o\ $end
$var wire 1 P \T7~output_o\ $end
$var wire 1 Q \CLK~input_o\ $end
$var wire 1 R \CLK~inputclkctrl_outclk\ $end
$var wire 1 S \CLR~input_o\ $end
$var wire 1 T \U1|Q~feeder_combout\ $end
$var wire 1 U \CLR~inputclkctrl_outclk\ $end
$var wire 1 V \U1|Q~q\ $end
$var wire 1 W \U2|Q~feeder_combout\ $end
$var wire 1 X \U2|Q~q\ $end
$var wire 1 Y \U3|Q~feeder_combout\ $end
$var wire 1 Z \U3|Q~q\ $end
$var wire 1 [ \U4|Q~feeder_combout\ $end
$var wire 1 \ \U4|Q~q\ $end
$var wire 1 ] \U5|Q~feeder_combout\ $end
$var wire 1 ^ \U5|Q~q\ $end
$var wire 1 _ \U6|Q~feeder_combout\ $end
$var wire 1 ` \U6|Q~q\ $end
$var wire 1 a \U7|Q~feeder_combout\ $end
$var wire 1 b \U7|Q~q\ $end
$var wire 1 c \U0|Q~0_combout\ $end
$var wire 1 d \U0|Q~q\ $end
$var wire 1 e \ALT_INV_CLK~inputclkctrl_outclk\ $end
$upscope $end
$upscope $end
$enddefinitions $end
#0
$dumpvars
0!
1"
0#
0$
0%
0&
0'
0(
0)
0*
0+
0,
1-
x.
1/
10
11
12
13
14
15
06
07
08
09
0:
0;
0<
0=
0>
0?
0H
0I
0J
0K
0L
0M
0N
0O
0P
0Q
0R
1S
0T
1U
0V
0W
0X
0Y
0Z
0[
0\
0]
0^
0_
0`
0a
0b
0c
0d
1e
1D
1E
1F
0G
1@
1A
1B
1C
$end
#5000
1!
16
1Q
1G
1R
0e
#10000
0!
06
0Q
0G
0R
1e
#15000
1!
16
1Q
1G
1R
0e
#20000
0!
0"
06
05
0S
0Q
0C
0G
1c
0R
0U
1e
1d
1T
1I
18
1$
#25000
1!
16
1Q
1G
1R
0e
#30000
0!
1"
06
15
1S
0Q
1C
0G
0c
0R
1U
1e
1V
0d
0T
1W
0I
1J
08
19
0$
1%
#35000
1!
16
1Q
1G
1R
0e
#40000
0!
06
0Q
0G
0R
1e
0V
1X
1Y
0W
1K
0J
1:
09
1&
0%
#45000
1!
16
1Q
1G
1R
0e
#50000
0!
06
0Q
0G
0R
1e
0X
1Z
1[
0Y
1L
0K
1;
0:
1'
0&
#55000
1!
16
1Q
1G
1R
0e
#60000
0!
06
0Q
0G
0R
1e
0Z
1\
1]
0[
1M
0L
1<
0;
1(
0'
#65000
1!
16
1Q
1G
1R
0e
#70000
0!
06
0Q
0G
0R
1e
0\
1^
1_
0]
1N
0M
1=
0<
1)
0(
#75000
1!
16
1Q
1G
1R
0e
#80000
0!
06
0Q
0G
0R
1e
0^
1`
1a
0_
1O
0N
1>
0=
1*
0)
#85000
1!
16
1Q
1G
1R
0e
#90000
0!
0"
06
05
0S
0Q
0C
0G
1c
0R
0U
1e
0`
1d
0a
1T
0O
1I
0>
18
0*
1$
#95000
1!
16
1Q
1G
1R
0e
#100000
0!
1"
06
15
1S
0Q
1C
0G
0c
0R
1U
1e
1V
0d
0T
1W
0I
1J
08
19
0$
1%
#105000
1!
16
1Q
1G
1R
0e
#110000
0!
06
0Q
0G
0R
1e
0V
1X
1Y
0W
1K
0J
1:
09
1&
0%
#115000
1!
16
1Q
1G
1R
0e
#120000
0!
06
0Q
0G
0R
1e
0X
1Z
1[
0Y
1L
0K
1;
0:
1'
0&
#125000
1!
16
1Q
1G
1R
0e
#130000
0!
06
0Q
0G
0R
1e
0Z
1\
1]
0[
1M
0L
1<
0;
1(
0'
#135000
1!
16
1Q
1G
1R
0e
#140000
0!
06
0Q
0G
0R
1e
0\
1^
1_
0]
1N
0M
1=
0<
1)
0(
#145000
1!
16
1Q
1G
1R
0e
#150000
0!
06
0Q
0G
0R
1e
0^
1`
1a
0_
1O
0N
1>
0=
1*
0)
#155000
1!
16
1Q
1G
1R
0e
#160000
0!
06
0Q
0G
0R
1e
0`
1b
1c
0a
1P
0O
1?
0>
1+
0*
#165000
1!
16
1Q
1G
1R
0e
#170000
0!
06
0Q
0G
0R
1e
0b
1d
1T
0c
1I
0P
18
0?
1$
0+
#175000
1!
16
1Q
1G
1R
0e
#180000
0!
06
0Q
0G
0R
1e
1V
0d
0T
1W
0I
1J
08
19
0$
1%
#185000
1!
16
1Q
1G
1R
0e
#190000
0!
06
0Q
0G
0R
1e
0V
1X
1Y
0W
1K
0J
1:
09
1&
0%
#195000
1!
16
1Q
1G
1R
0e
#200000
0!
06
0Q
0G
0R
1e
0X
1Z
1[
0Y
1L
0K
1;
0:
1'
0&
#205000
1!
16
1Q
1G
1R
0e
#210000
0!
06
0Q
0G
0R
1e
0Z
1\
1]
0[
1M
0L
1<
0;
1(
0'
#215000
1!
16
1Q
1G
1R
0e
#220000
0!
06
0Q
0G
0R
1e
0\
1^
1_
0]
1N
0M
1=
0<
1)
0(
#225000
1!
16
1Q
1G
1R
0e
#230000
0!
06
0Q
0G
0R
1e
0^
1`
1a
0_
1O
0N
1>
0=
1*
0)
#235000
1!
16
1Q
1G
1R
0e
#240000
0!
06
0Q
0G
0R
1e
0`
1b
1c
0a
1P
0O
1?
0>
1+
0*
#245000
1!
16
1Q
1G
1R
0e
#250000
0!
06
0Q
0G
0R
1e
0b
1d
1T
0c
1I
0P
18
0?
1$
0+
#255000
1!
16
1Q
1G
1R
0e
#260000
0!
06
0Q
0G
0R
1e
1V
0d
0T
1W
0I
1J
08
19
0$
1%
#265000
1!
16
1Q
1G
1R
0e
#270000
0!
06
0Q
0G
0R
1e
0V
1X
1Y
0W
1K
0J
1:
09
1&
0%
#275000
1!
16
1Q
1G
1R
0e
#280000
0!
06
0Q
0G
0R
1e
0X
1Z
1[
0Y
1L
0K
1;
0:
1'
0&
#285000
1!
16
1Q
1G
1R
0e
#290000
0!
06
0Q
0G
0R
1e
0Z
1\
1]
0[
1M
0L
1<
0;
1(
0'
#295000
1!
16
1Q
1G
1R
0e
#300000
0!
06
0Q
0G
0R
1e
0\
1^
1_
0]
1N
0M
1=
0<
1)
0(
#305000
1!
16
1Q
1G
1R
0e
#310000
0!
06
0Q
0G
0R
1e
0^
1`
1a
0_
1O
0N
1>
0=
1*
0)
#315000
1!
16
1Q
1G
1R
0e
#320000
0!
06
0Q
0G
0R
1e
0`
1b
1c
0a
1P
0O
1?
0>
1+
0*
#325000
1!
16
1Q
1G
1R
0e
#330000
0!
06
0Q
0G
0R
1e
0b
1d
1T
0c
1I
0P
18
0?
1$
0+
#335000
1!
16
1Q
1G
1R
0e
#340000
0!
06
0Q
0G
0R
1e
1V
0d
0T
1W
0I
1J
08
19
0$
1%
#345000
1!
16
1Q
1G
1R
0e
#350000
0!
06
0Q
0G
0R
1e
0V
1X
1Y
0W
1K
0J
1:
09
1&
0%
#355000
1!
16
1Q
1G
1R
0e
#360000
0!
06
0Q
0G
0R
1e
0X
1Z
1[
0Y
1L
0K
1;
0:
1'
0&
#365000
1!
16
1Q
1G
1R
0e
#370000
0!
06
0Q
0G
0R
1e
0Z
1\
1]
0[
1M
0L
1<
0;
1(
0'
#375000
1!
16
1Q
1G
1R
0e
#380000
0!
06
0Q
0G
0R
1e
0\
1^
1_
0]
1N
0M
1=
0<
1)
0(
#385000
1!
16
1Q
1G
1R
0e
#390000
0!
06
0Q
0G
0R
1e
0^
1`
1a
0_
1O
0N
1>
0=
1*
0)
#395000
1!
16
1Q
1G
1R
0e
#400000
0!
06
0Q
0G
0R
1e
0`
1b
1c
0a
1P
0O
1?
0>
1+
0*
#405000
1!
16
1Q
1G
1R
0e
#410000
0!
06
0Q
0G
0R
1e
0b
1d
1T
0c
1I
0P
18
0?
1$
0+
#415000
1!
16
1Q
1G
1R
0e
#420000
0!
06
0Q
0G
0R
1e
1V
0d
0T
1W
0I
1J
08
19
0$
1%
#425000
1!
16
1Q
1G
1R
0e
#430000
0!
06
0Q
0G
0R
1e
0V
1X
1Y
0W
1K
0J
1:
09
1&
0%
#435000
1!
16
1Q
1G
1R
0e
#440000
0!
06
0Q
0G
0R
1e
0X
1Z
1[
0Y
1L
0K
1;
0:
1'
0&
#445000
1!
16
1Q
1G
1R
0e
#450000
0!
06
0Q
0G
0R
1e
0Z
1\
1]
0[
1M
0L
1<
0;
1(
0'
#455000
1!
16
1Q
1G
1R
0e
#460000
0!
06
0Q
0G
0R
1e
0\
1^
1_
0]
1N
0M
1=
0<
1)
0(
#465000
1!
16
1Q
1G
1R
0e
#470000
0!
06
0Q
0G
0R
1e
0^
1`
1a
0_
1O
0N
1>
0=
1*
0)
#475000
1!
16
1Q
1G
1R
0e
#480000
0!
06
0Q
0G
0R
1e
0`
1b
1c
0a
1P
0O
1?
0>
1+
0*
#485000
1!
16
1Q
1G
1R
0e
#490000
0!
06
0Q
0G
0R
1e
0b
1d
1T
0c
1I
0P
18
0?
1$
0+
#495000
1!
16
1Q
1G
1R
0e
#500000
0!
06
0Q
0G
0R
1e
1V
0d
0T
1W
0I
1J
08
19
0$
1%
#505000
1!
16
1Q
1G
1R
0e
#510000
0!
06
0Q
0G
0R
1e
0V
1X
1Y
0W
1K
0J
1:
09
1&
0%
#515000
1!
16
1Q
1G
1R
0e
#520000
0!
06
0Q
0G
0R
1e
0X
1Z
1[
0Y
1L
0K
1;
0:
1'
0&
#525000
1!
16
1Q
1G
1R
0e
#530000
0!
06
0Q
0G
0R
1e
0Z
1\
1]
0[
1M
0L
1<
0;
1(
0'
#535000
1!
16
1Q
1G
1R
0e
#540000
0!
06
0Q
0G
0R
1e
0\
1^
1_
0]
1N
0M
1=
0<
1)
0(
#545000
1!
16
1Q
1G
1R
0e
#550000
0!
06
0Q
0G
0R
1e
0^
1`
1a
0_
1O
0N
1>
0=
1*
0)
#555000
1!
16
1Q
1G
1R
0e
#560000
0!
06
0Q
0G
0R
1e
0`
1b
1c
0a
1P
0O
1?
0>
1+
0*
#565000
1!
16
1Q
1G
1R
0e
#570000
0!
06
0Q
0G
0R
1e
0b
1d
1T
0c
1I
0P
18
0?
1$
0+
#575000
1!
16
1Q
1G
1R
0e
#580000
0!
06
0Q
0G
0R
1e
1V
0d
0T
1W
0I
1J
08
19
0$
1%
#585000
1!
16
1Q
1G
1R
0e
#590000
0!
06
0Q
0G
0R
1e
0V
1X
1Y
0W
1K
0J
1:
09
1&
0%
#595000
1!
16
1Q
1G
1R
0e
#600000
0!
06
0Q
0G
0R
1e
0X
1Z
1[
0Y
1L
0K
1;
0:
1'
0&
#605000
1!
16
1Q
1G
1R
0e
#610000
0!
06
0Q
0G
0R
1e
0Z
1\
1]
0[
1M
0L
1<
0;
1(
0'
#615000
1!
16
1Q
1G
1R
0e
#620000
0!
06
0Q
0G
0R
1e
0\
1^
1_
0]
1N
0M
1=
0<
1)
0(
#625000
1!
16
1Q
1G
1R
0e
#630000
0!
06
0Q
0G
0R
1e
0^
1`
1a
0_
1O
0N
1>
0=
1*
0)
#635000
1!
16
1Q
1G
1R
0e
#640000
0!
06
0Q
0G
0R
1e
0`
1b
1c
0a
1P
0O
1?
0>
1+
0*
#645000
1!
16
1Q
1G
1R
0e
#650000
0!
06
0Q
0G
0R
1e
0b
1d
1T
0c
1I
0P
18
0?
1$
0+
#655000
1!
16
1Q
1G
1R
0e
#660000
0!
06
0Q
0G
0R
1e
1V
0d
0T
1W
0I
1J
08
19
0$
1%
#665000
1!
16
1Q
1G
1R
0e
#670000
0!
06
0Q
0G
0R
1e
0V
1X
1Y
0W
1K
0J
1:
09
1&
0%
#675000
1!
16
1Q
1G
1R
0e
#680000
0!
06
0Q
0G
0R
1e
0X
1Z
1[
0Y
1L
0K
1;
0:
1'
0&
#685000
1!
16
1Q
1G
1R
0e
#690000
0!
06
0Q
0G
0R
1e
0Z
1\
1]
0[
1M
0L
1<
0;
1(
0'
#695000
1!
16
1Q
1G
1R
0e
#700000
0!
06
0Q
0G
0R
1e
0\
1^
1_
0]
1N
0M
1=
0<
1)
0(
#705000
1!
16
1Q
1G
1R
0e
#710000
0!
06
0Q
0G
0R
1e
0^
1`
1a
0_
1O
0N
1>
0=
1*
0)
#715000
1!
16
1Q
1G
1R
0e
#720000
0!
06
0Q
0G
0R
1e
0`
1b
1c
0a
1P
0O
1?
0>
1+
0*
#725000
1!
16
1Q
1G
1R
0e
#730000
0!
06
0Q
0G
0R
1e
0b
1d
1T
0c
1I
0P
18
0?
1$
0+
#735000
1!
16
1Q
1G
1R
0e
#740000
0!
06
0Q
0G
0R
1e
1V
0d
0T
1W
0I
1J
08
19
0$
1%
#745000
1!
16
1Q
1G
1R
0e
#750000
0!
06
0Q
0G
0R
1e
0V
1X
1Y
0W
1K
0J
1:
09
1&
0%
#755000
1!
16
1Q
1G
1R
0e
#760000
0!
06
0Q
0G
0R
1e
0X
1Z
1[
0Y
1L
0K
1;
0:
1'
0&
#765000
1!
16
1Q
1G
1R
0e
#770000
0!
06
0Q
0G
0R
1e
0Z
1\
1]
0[
1M
0L
1<
0;
1(
0'
#775000
1!
16
1Q
1G
1R
0e
#780000
0!
06
0Q
0G
0R
1e
0\
1^
1_
0]
1N
0M
1=
0<
1)
0(
#785000
1!
16
1Q
1G
1R
0e
#790000
0!
06
0Q
0G
0R
1e
0^
1`
1a
0_
1O
0N
1>
0=
1*
0)
#795000
1!
16
1Q
1G
1R
0e
#800000
0!
06
0Q
0G
0R
1e
0`
1b
1c
0a
1P
0O
1?
0>
1+
0*
#805000
1!
16
1Q
1G
1R
0e
#810000
0!
06
0Q
0G
0R
1e
0b
1d
1T
0c
1I
0P
18
0?
1$
0+
#815000
1!
16
1Q
1G
1R
0e
#820000
0!
06
0Q
0G
0R
1e
1V
0d
0T
1W
0I
1J
08
19
0$
1%
#825000
1!
16
1Q
1G
1R
0e
#830000
0!
06
0Q
0G
0R
1e
0V
1X
1Y
0W
1K
0J
1:
09
1&
0%
#835000
1!
16
1Q
1G
1R
0e
#840000
0!
06
0Q
0G
0R
1e
0X
1Z
1[
0Y
1L
0K
1;
0:
1'
0&
#845000
1!
16
1Q
1G
1R
0e
#850000
0!
06
0Q
0G
0R
1e
0Z
1\
1]
0[
1M
0L
1<
0;
1(
0'
#855000
1!
16
1Q
1G
1R
0e
#860000
0!
06
0Q
0G
0R
1e
0\
1^
1_
0]
1N
0M
1=
0<
1)
0(
#865000
1!
16
1Q
1G
1R
0e
#870000
0!
06
0Q
0G
0R
1e
0^
1`
1a
0_
1O
0N
1>
0=
1*
0)
#875000
1!
16
1Q
1G
1R
0e
#880000
0!
06
0Q
0G
0R
1e
0`
1b
1c
0a
1P
0O
1?
0>
1+
0*
#885000
1!
16
1Q
1G
1R
0e
#890000
0!
06
0Q
0G
0R
1e
0b
1d
1T
0c
1I
0P
18
0?
1$
0+
#895000
1!
16
1Q
1G
1R
0e
#900000
0!
06
0Q
0G
0R
1e
1V
0d
0T
1W
0I
1J
08
19
0$
1%
#905000
1!
16
1Q
1G
1R
0e
#910000
0!
06
0Q
0G
0R
1e
0V
1X
1Y
0W
1K
0J
1:
09
1&
0%
#915000
1!
16
1Q
1G
1R
0e
#920000
0!
06
0Q
0G
0R
1e
0X
1Z
1[
0Y
1L
0K
1;
0:
1'
0&
#925000
1!
16
1Q
1G
1R
0e
#930000
0!
06
0Q
0G
0R
1e
0Z
1\
1]
0[
1M
0L
1<
0;
1(
0'
#935000
1!
16
1Q
1G
1R
0e
#940000
0!
06
0Q
0G
0R
1e
0\
1^
1_
0]
1N
0M
1=
0<
1)
0(
#945000
1!
16
1Q
1G
1R
0e
#950000
0!
06
0Q
0G
0R
1e
0^
1`
1a
0_
1O
0N
1>
0=
1*
0)
#955000
1!
16
1Q
1G
1R
0e
#960000
0!
06
0Q
0G
0R
1e
0`
1b
1c
0a
1P
0O
1?
0>
1+
0*
#965000
1!
16
1Q
1G
1R
0e
#970000
0!
06
0Q
0G
0R
1e
0b
1d
1T
0c
1I
0P
18
0?
1$
0+
#975000
1!
16
1Q
1G
1R
0e
#980000
0!
06
0Q
0G
0R
1e
1V
0d
0T
1W
0I
1J
08
19
0$
1%
#985000
1!
16
1Q
1G
1R
0e
#990000
0!
06
0Q
0G
0R
1e
0V
1X
1Y
0W
1K
0J
1:
09
1&
0%
#995000
1!
16
1Q
1G
1R
0e
